Week 1 | Intro to data and Probability
…
To do so, once again, you can

click on the green arrow at the top of the code chunk in the R Markdown (Rmd) file, or

put your cursor on this line, and hit the Run button on the upper right corner of the pane, or

type the code in the console.

This command instructs R to load some data. The Arbuthnot baptism counts for boys and girls. You should see that the workspace area in the upper righthand corner of the RStudio window now lists a data set called arbuthnot that has 82 observations on 3 variables. As you interact with R, you will create a series of objects. Sometimes you load them as we have done here, and sometimes you create them yourself as the byproduct of a computation or some analysis you have performed.

The Arbuthnot data set refers to Dr. John Arbuthnot, an 18th century physician, writer, and mathematician. He was interested in the ratio of newborn boys to newborn girls, so he gathered the baptism records for children born in London for every year from 1629 to 1710. We can take a look at the data by typing its name into the console.

arbuthnot

## # A tibble: 82 x 3
##     year  boys girls
##    <int> <int> <int>
##  1  1629  5218  4683
##  2  1630  4858  4457
##  3  1631  4422  4102
##  4  1632  4994  4590
##  5  1633  5158  4839
##  6  1634  5035  4820
##  7  1635  5106  4928
##  8  1636  4917  4605
##  9  1637  4703  4457
## 10  1638  5359  4952
## # ... with 72 more rows
…
1957

1961

1991

2007

# type your code for Question 8 here
# sample code is provided below, edit as necessary, uncomment, and then Knit
present %>%
  mutate(total = boys +girls) %>%
  arrange(desc(total))

## # A tibble: 74 x 7
##     year    boys   girls   total prop_boys more_boys prop_boy_girl
##    <dbl>   <dbl>   <dbl>   <dbl>     <dbl> <lgl>             <dbl>
##  1  2007 2208071 2108162 4316233     0.512 TRUE               1.05
##  2  1961 2186274 2082052 4268326     0.512 TRUE               1.05
##  3  2006 2184237 2081318 4265555     0.512 TRUE               1.05
##  4  1960 2179708 2078142 4257850     0.512 TRUE               1.05
##  5  1957 2179960 2074824 4254784     0.512 TRUE               1.05
##  6  2008 2173625 2074069 4247694     0.512 TRUE               1.05
##  7  1959 2173638 2071158 4244796     0.512 TRUE               1.05
##  8  1958 2152546 2051266 4203812     0.512 TRUE               1.05
##  9  1962 2132466 2034896 4167362     0.512 TRUE               1.05
## 10  1956 2133588 2029502 4163090     0.513 TRUE               1.05
## # ... with 64 more rows
…
