Week 2 | Intro to data and Probability
…
N947UW

N959UW

# type your code for Question 8 here, and Knit
nycflights <- nycflights %>%
  mutate(avg_speed = (distance)*60/air_time) 
  #arrange(desc(avg_speed))

nycflights %>%
  select(tailnum, avg_speed) %>%
  arrange(desc(avg_speed))

## # A tibble: 32,735 x 2
##    tailnum avg_speed
##    <chr>       <dbl>
##  1 N666DN       703.
##  2 N779JB       557.
##  3 N571JB       554.
##  4 N568JB       548.
##  5 N5EHAA       548.
##  6 N656JB       548.
##  7 N789JB       545.
##  8 N516JB       539.
##  9 N648JB       536.
## 10 N510JB       536.
## # ... with 32,725 more rows
…
