Week 4 - Project - Exploring the BRFSS data by Akshay Kotha | Intro to Data and Probability
…
## [1] "X_state"  "stateres" "cstate"

# number of respondents grouped by state
statewise_count <- brfss2013 %>%
  group_by(X_state) %>%
  summarise(count = n())

  #arrange(desc(countX_state))
#finding the descending order
statewise_count %>%
  #summarise(max(count), min(count))
  arrange(desc(count))

## # A tibble: 55 x 2
##    X_state       count
##    <fct>         <int>
##  1 Florida       33668
##  2 Kansas        23282
##  3 Nebraska      17139
##  4 Massachusetts 15071
##  5 Minnesota     14340
##  6 New Jersey    13776
##  7 Colorado      13649
##  8 Maryland      13011
##  9 Utah          12769
## 10 Michigan      12761
## # ... with 45 more rows
…
